{
  "A4_calib":[
    [
      66.0,
      111.0
    ],
    [
      179.0,
      111.0
    ],
    [
      7.0,
      211.0
    ],
    [
      244.0,
      211.0
    ]
  ],
  "A4_ref":[
    [
      0,
      0
    ],
    [
      210,
      0
    ],
    [
      0,
      297
    ],
    [
      210,
      297
    ]
  ],
  "birdsview":0,
  "blue_hsv":[
    111,
    170,
    105
  ],
  "blue_tol":[
    10,
    31,
    25
  ],
  "camera":"orange",
  "filter":true,
  "flip_horiz":1,
  "flip_vert":1,
  "green_hsv":[
    84,
    132,
    116
  ],
  "green_rgb":[
    104,
    116,
    56
  ],
  "green_tol":[
    23,
    62,
    70
  ],
  "hide":0,
  "mqtt_host":"localhost",
  "mqtt_port":1883,
  "offset":[
    340,
    610
  ],
  "red_hsv":[
    173,
    85,
    75
  ],
  "red_tol":[
    13,
    20,
    9
  ],
  "roi":[
    0,
    0,
    247,
    74
  ],
  "rotate":0,
  "subsampling":1,
  "target_hsv":[
    173,
    85,
    75
  ],
  "target_tol":[
    13,
    20,
    9
  ],
  "video_size":[
    320,
    240
  ],
  "warp_size":[
    210,
    260
  ]
}